{
  "name": "olaf",
  "playedGames": 4,
  "avgPlayersPerGame": 4,
  "wonPointsAbs": 60,
  "wonPointsRel": 27.272728,
  "highScorePoints": 25,
  "highScorePosition": 1,
  "wonGames": 1,
  "avgPosition": 2.5,
  "totalPlayersInAllGames": 16,
  "totalPositionSum": 10,
  "lastGamePoints": 16
}
