{
  "name": "reiner",
  "playedGames": 4,
  "avgPlayersPerGame": 4,
  "wonPointsAbs": 22,
  "wonPointsRel": 10.0,
  "highScorePoints": 14,
  "highScorePosition": 2,
  "wonGames": 0,
  "avgPosition": 3.25,
  "totalPlayersInAllGames": 16,
  "totalPositionSum": 13,
  "lastGamePoints": 1
}
